<?xml version="1.0" encoding="utf-8"?>
<!-- Generator: Adobe Illustrator 22.0.1, SVG Export Plug-In . SVG Version: 6.00 Build 0)  -->
<svg version="1.1" id="Layer_1" xmlns="http://www.w3.org/2000/svg" xmlns:xlink="http://www.w3.org/1999/xlink" x="0px" y="0px"
	 viewBox="0 0 50 50" style="enable-background:new 0 0 50 50;" xml:space="preserve">
<style type="text/css">
	.st0{fill:#231F20;}
</style>
<path class="st0" d="M8.2,2.5C5.3,2.5,3,4.8,3,7.7s2.3,5.2,5.2,5.2s5.2-2.3,5.2-5.2S11.1,2.5,8.2,2.5 M47.3,26.4
	c-0.7-5.6-3.3-9.1-10.8-9.1c-4.5,0-7.5,1.6-8.7,4h-0.1v-4h-8.3V23v24H28V32.3c0-3.9,0.8-7.6,5.5-7.6c4.8,0,5.1,4.4,5.1,7.9V47h8.9
	V30.7C47.5,29.2,47.4,27.7,47.3,26.4 M3,25.2V47h10.4V23.4v-6.1H3V25.2z"/>
</svg>
