<?xml version="1.0" encoding="utf-8"?>
<!-- Generator: Adobe Illustrator 22.0.1, SVG Export Plug-In . SVG Version: 6.00 Build 0)  -->
<svg version="1.1" id="Layer_1" xmlns="http://www.w3.org/2000/svg" xmlns:xlink="http://www.w3.org/1999/xlink" x="0px" y="0px"
	 viewBox="0 0 539.2 407.4" style="enable-background:new 0 0 539.2 407.4;" xml:space="preserve">
<style type="text/css">
	.st0{fill:url(#SVGID_1_);}
	.st1{fill:url(#SVGID_2_);}
	.st2{fill:url(#SVGID_3_);}
	.st3{fill:url(#SVGID_4_);}
	.st4{fill:url(#SVGID_5_);}
	.st5{fill:url(#SVGID_6_);}
	.st6{fill:url(#SVGID_7_);}
	.st7{fill:#FFFFFF;}
</style>
<g id="Layer_1_1_">
	<g>
		<g>
			
				<radialGradient id="SVGID_1_" cx="276.3483" cy="420.4964" r="215.443" gradientTransform="matrix(1 0 0 -1 0 630)" gradientUnits="userSpaceOnUse">
				<stop  offset="0" style="stop-color:#FFFFFF;stop-opacity:0.75"/>
				<stop  offset="0.8871" style="stop-color:#FFFFFF;stop-opacity:0.3065"/>
				<stop  offset="1" style="stop-color:#FFFFFF;stop-opacity:0.25"/>
			</radialGradient>
			<path class="st0" d="M292.7,406.3c-0.1,0-0.2,0-0.3-0.1c-0.1-0.1-0.1-0.4,0-0.5c16.5-16.7,19.9-46.7,19.9-69
				c0-28.4-5.5-56.8-10.6-73.8c-8.2-27.4-20.4-53.9-32.1-79.5l-2-4.3c-5.9-12.9-11.7-23.8-17.3-34.3c-5.8-10.9-11.3-21.2-16.3-32.6
				c-27.3,10.3-56,19.3-83.7,19.3c-9.9,0-19.7-1.2-29.3-3.8c-32.7-9.1-56.4-20.5-77.1-36.7c-0.2-0.1-0.2-0.4-0.1-0.5
				c0.1-0.2,0.4-0.2,0.5-0.1c20.6,16.2,44.3,27.5,76.8,36.6c36,10,75.6-1.5,112.6-15.5c-7.3-16.9-13.4-36.1-17.7-63.2
				c-1.1-7.2,0-15.3,2.9-21.7c2.5-5.4,7.4-12.1,16.9-13.5c18.1-2.8,38.1,11.4,52.8,21.7l2.1,1.5c10.6,7.5,20.6,16.2,30.2,24.6
				c4.7,4.1,9.6,8.3,14.5,12.4c41.2-15.9,83.7-32.1,127.1-21.8c11.3,2.7,22.1,7.2,31.3,13.1c10.7,6.9,16.2,16.6,15,26.6
				c-1.2,10.1-9.1,18.6-21.3,22.9c-19,6.7-43.3,7.3-68.5,1.8c-27.8-6-54.6-18.8-77.6-36.8c-2.1-1.6-4.1-3.3-6.1-4.9
				c-0.4,0.1-0.7,0.3-1.1,0.4c-12.3,4.7-25,9.7-37.2,13.6c-12.8,4.2-26.1,9.4-40.2,15c-7.2,2.9-14.6,5.8-22.1,8.7
				c5,11.3,10.4,21.6,16.2,32.5c5.6,10.5,11.4,21.4,17.3,34.3l2,4.3c11.8,25.6,23.9,52.1,32.1,79.6c5.1,17.1,10.6,45.5,10.6,74
				c0,22.4-3.4,52.7-20.1,69.5C292.9,406.3,292.8,406.3,292.7,406.3z M336.1,73.8c1.9,1.6,3.9,3.1,5.8,4.7
				c22.9,18,49.7,30.7,77.3,36.7c25.1,5.4,49.3,4.8,68.1-1.8c11.8-4.2,19.6-12.5,20.8-22.3c1.1-9.7-4.2-19.1-14.7-25.9
				c-9.1-5.9-19.9-10.4-31.1-13C419.4,42.1,377.1,58,336.1,73.8z M240.7,13.5c-1.6,0-3.1,0.1-4.7,0.4c-9.1,1.4-13.9,7.9-16.3,13.1
				c-2.9,6.2-4,14.2-2.9,21.2c4.2,26.9,10.3,46.2,17.6,63c7.5-2.8,14.9-5.8,22.1-8.7c14.1-5.6,27.4-10.9,40.2-15.1
				c12.2-4,24.3-8.7,37.2-13.6c0.2-0.1,0.5-0.2,0.7-0.3c-4.8-4-9.6-8.1-14.2-12.2c-9.6-8.4-19.6-17-30.2-24.5l-2.1-1.5
				C274.9,26.1,257.2,13.5,240.7,13.5z"/>
		</g>
		<g>
			
				<radialGradient id="SVGID_2_" cx="269.1944" cy="415.8227" r="210.2813" gradientTransform="matrix(1 0 0 -1 0 630)" gradientUnits="userSpaceOnUse">
				<stop  offset="0" style="stop-color:#FFFFFF;stop-opacity:0.75"/>
				<stop  offset="0.8871" style="stop-color:#FFFFFF;stop-opacity:0.3065"/>
				<stop  offset="1" style="stop-color:#FFFFFF;stop-opacity:0.25"/>
			</radialGradient>
			<path class="st1" d="M292.7,405.9c-0.1,0-0.2,0-0.2-0.1c-0.2-0.1-0.2-0.4,0-0.5c21.1-24.4,16.3-79.4,13.3-102
				c-1.8-13.3-4.7-26.9-8.2-38.2c-6.4-20.9-15-40.8-22.7-57.5c-2.2-4.8-4.4-9.7-6.7-14.5c-1.5-3.2-3-6.5-4.5-9.7
				c-4.6-10-9.1-18.9-13.4-27.6c-1-1.9-1.9-3.8-2.8-5.6c-5.8-11.6-11.3-23-15.8-35.5c-28.1,7.8-56.8,12.8-84.5,10.2
				c-11.5-1.1-21.9-3.4-31.8-7.1C85,106.5,62.4,93.6,42,76.1c-0.2-0.1-0.2-0.4,0-0.5c0.1-0.2,0.4-0.2,0.5,0
				c20.4,17.4,42.9,30.2,73.2,41.5c9.8,3.6,20.1,5.9,31.6,7c27.5,2.6,56.1-2.3,84.1-10.1c-5.9-16.6-10.2-35.2-11.6-59
				c-0.8-13.9,6.7-29.9,22.1-32.2c16.7-2.4,35.2,9.6,48.8,18.4l2.1,1.3c10.1,6.5,19.6,14.1,28.8,21.5c5.2,4.1,10.5,8.4,15.9,12.4
				c16-6.5,32.4-12.8,48.9-17c25.7-6.6,47.1-7.6,67.1-3.3c10.2,2.2,20.5,6.1,29,11.1c6.5,3.8,10.9,8.5,12.8,13.7
				c1.9,5.1,1.6,10.3-0.8,15c-3.2,6.5-9.9,11.6-19,14.5c-17.5,5.5-39.9,5.9-63,1.1c-24.8-5.1-49.4-15.7-69.2-30
				c-0.4-0.3-0.8-0.6-1.2-0.8c-0.5-0.4-1-0.7-1.5-1.1c-1.1-0.8-2.1-1.6-3.2-2.4c-3,1.2-5.9,2.4-8.9,3.6
				c-13.1,5.4-26.6,10.9-39.8,15.2c-6.3,2.1-12.7,4.3-19.4,6.6l-0.5,0.2c-11.9,4.1-24.1,8.1-36.3,11.5c4.5,12.5,9.9,23.8,15.7,35.4
				c0.9,1.9,1.9,3.7,2.8,5.6c4.3,8.6,8.8,17.6,13.5,27.6c1.5,3.2,3,6.5,4.5,9.7c2.2,4.8,4.5,9.6,6.7,14.5
				c7.6,16.8,16.3,36.7,22.7,57.6c3.5,11.3,6.4,24.9,8.2,38.3c3.1,22.6,7.8,77.9-13.4,102.6C292.9,405.9,292.8,405.9,292.7,405.9z
				 M338.1,77.1c0.9,0.7,1.9,1.4,2.8,2.1c0.5,0.4,1,0.7,1.5,1.1c0.4,0.3,0.8,0.6,1.2,0.9c19.7,14.2,44.2,24.8,68.9,29.8
				c23,4.8,45.3,4.4,62.6-1.1c8.9-2.8,15.5-7.8,18.6-14.1c2.3-4.6,2.5-9.6,0.7-14.4c-1.8-5-6.2-9.7-12.5-13.3
				c-8.4-4.9-18.6-8.8-28.8-11c-19.9-4.3-41.1-3.2-66.8,3.3C370.1,64.5,353.9,70.7,338.1,77.1z M246.4,23.4c-1.5,0-2.9,0.1-4.4,0.3
				c-15,2.2-22.2,17.8-21.4,31.4c1.4,23.7,5.6,42.3,11.5,58.8c12.3-3.4,24.4-7.4,36.3-11.5l0.5-0.2c6.7-2.3,13.1-4.6,19.4-6.6
				c13.2-4.3,26.7-9.9,39.8-15.2c2.8-1.2,5.6-2.3,8.5-3.5c-5.3-4-10.5-8.1-15.5-12.2c-9.2-7.3-18.6-14.9-28.7-21.4l-2.1-1.3
				C278,34,261.6,23.4,246.4,23.4z"/>
		</g>
		<g>
			
				<radialGradient id="SVGID_3_" cx="261.8039" cy="410.9523" r="205.0195" gradientTransform="matrix(1 0 0 -1 0 630)" gradientUnits="userSpaceOnUse">
				<stop  offset="0" style="stop-color:#FFFFFF;stop-opacity:0.75"/>
				<stop  offset="0.8871" style="stop-color:#FFFFFF;stop-opacity:0.3065"/>
				<stop  offset="1" style="stop-color:#FFFFFF;stop-opacity:0.25"/>
			</radialGradient>
			<path class="st2" d="M292.7,405.5c-0.1,0-0.2,0-0.2-0.1c-0.2-0.1-0.2-0.4-0.1-0.5c17.8-24.1,11.5-82.8,9.1-100.2
				c-1.8-12.9-4.6-25.8-8.2-37.2c-6.3-20.2-14.9-39.6-22.6-56c-1.4-3-2.8-6-4.2-9.1c-2.3-4.8-4.5-9.7-6.8-14.5
				c-3.1-6.8-6.2-13.2-9.2-19.4c-2.2-4.6-4.3-8.9-6.3-13.2c-5.4-11.3-10.5-23.3-14.3-36.6c-31.7,6.3-61.8,6.2-89.9-0.2
				c-11.2-2.6-21.1-5.9-30.3-10.3C81.8,95,60.9,81,39.9,61.6c-0.2-0.1-0.2-0.4,0-0.5c0.1-0.2,0.4-0.2,0.5,0
				c20.9,19.4,41.7,33.3,69.6,46.5c9.2,4.3,19,7.7,30.2,10.2c28,6.4,58,6.5,89.5,0.3c-4.7-16.4-7.4-34.7-6.2-56.1
				c0.7-12.5,8.6-27,24.4-29.1c15.3-2,31.7,7.5,44.9,15.2l1.9,1.1c9.5,5.5,18.6,12,27.3,18.3c5.6,4,11.3,8.2,17.2,12
				c12.4-5.2,25.1-10,38-13.5c26-7.1,47.3-8.6,67.1-4.8c9.3,1.8,19,5.1,26.7,9.1c6.3,3.3,10.5,7.4,12,12c1.4,4.2,1.1,8.4-1,12.2
				c-3.1,5.8-9.8,10.3-18.8,12.8c-15.9,4.3-36.3,4.5-57.4,0.3c-23.3-4.6-46.6-13.8-63.7-25.4c-0.5-0.3-1-0.6-1.5-0.9
				c-0.4-0.2-0.7-0.5-1.1-0.7c-0.1-0.1-0.2-0.1-0.3-0.2c-5.8,2.4-11.5,4.9-17.2,7.3c-13.7,5.9-27.9,12.1-41.9,16.7l-3.2,1.1
				c-5.4,1.8-11,3.7-16.7,5.5c-9.9,3.1-19.7,5.6-29.4,7.6c3.8,13.2,8.9,25.2,14.2,36.4c2,4.3,4.1,8.6,6.3,13.2
				c3,6.2,6.1,12.6,9.2,19.4c2.2,4.8,4.5,9.7,6.8,14.5c1.4,3,2.8,6,4.2,9.1c7.6,16.4,16.3,35.9,22.6,56.1
				c3.6,11.5,6.4,24.4,8.2,37.4c2.4,17.5,8.7,76.4-9.3,100.8C292.9,405.5,292.8,405.5,292.7,405.5z M252.2,33.3
				c-1.4,0-2.8,0.1-4.2,0.3c-15.3,2-23,16.1-23.7,28.4c-1.2,21.3,1.5,39.5,6.2,55.9c9.7-1.9,19.5-4.5,29.4-7.6
				c5.7-1.8,11.3-3.7,16.7-5.5l3.2-1.1c14-4.7,28.2-10.8,41.9-16.7c5.5-2.4,11.1-4.8,16.7-7.1c-5.7-3.8-11.3-7.8-16.8-11.8
				c-8.7-6.3-17.8-12.8-27.3-18.3l-1.9-1.1C280.6,41.7,266.1,33.3,252.2,33.3z M340,79.9c0.3,0.2,0.6,0.4,0.9,0.6
				c0.5,0.3,1,0.6,1.5,1c17.1,11.5,40.2,20.7,63.4,25.2c21.1,4.1,41.3,4,57.1-0.3c8.9-2.4,15.4-6.8,18.4-12.4
				c1.9-3.6,2.3-7.6,0.9-11.6c-1.5-4.4-5.5-8.4-11.6-11.6c-7.6-4-17.3-7.3-26.5-9c-19.6-3.8-40.8-2.2-66.7,4.8
				C364.8,70.1,352.3,74.9,340,79.9z"/>
		</g>
		<g>
			
				<radialGradient id="SVGID_4_" cx="254.6827" cy="406.3381" r="199.7634" gradientTransform="matrix(1 0 0 -1 0 630)" gradientUnits="userSpaceOnUse">
				<stop  offset="0" style="stop-color:#FFFFFF;stop-opacity:0.75"/>
				<stop  offset="0.8871" style="stop-color:#FFFFFF;stop-opacity:0.3065"/>
				<stop  offset="1" style="stop-color:#FFFFFF;stop-opacity:0.25"/>
			</radialGradient>
			<path class="st3" d="M292.7,405.1c-0.1,0-0.1,0-0.2-0.1c-0.2-0.1-0.2-0.3-0.1-0.5c13.5-22.3,8-76.3,5-98.5
				c-1.7-12.3-4.5-24.9-8.2-36.3c-6.2-19.5-14.9-38.5-22.4-54.5l-1.9-3.9c-3-6.2-6-12.7-9-19.1c-1.6-3.4-3.1-6.6-4.6-9.9
				c-3.6-7.7-7-15-10.1-22.2c-5.6-12.7-9.7-24.8-12.3-36.6c-31,4.5-62.5,0.6-95.8-11.8c-10.7-4-20.2-8.4-28.8-13.5
				c-24.8-14.6-44.5-30-66.1-51.5c-0.1-0.1-0.1-0.4,0-0.5s0.4-0.1,0.5,0c21.5,21.5,41.3,36.9,66,51.4c8.6,5.1,18,9.5,28.7,13.5
				c33.1,12.4,64.5,16.2,95.4,11.7c-4.2-18.9-4.6-36.9-1.3-54.3c2-10.8,10.2-24,26.6-26c14.1-1.7,29.2,5.9,41.3,12.1l1.5,0.8
				c9,4.5,17.6,9.9,25.9,15.2c5.2,3.3,10.7,6.7,16.1,9.9c0.3,0.2,0.6,0.3,0.9,0.5c0.5,0.3,1,0.5,1.5,0.8c0,0,0.1,0,0.1,0.1
				c8.8-3.6,17.8-7,26.8-9.6c26.2-7.6,47.5-9.7,67-6.4c3.2,0.5,14.3,2.6,24.3,7.1c6.2,2.8,10.1,6.3,11.2,10.2c1,3.3,0.6,6.5-1.1,9.5
				c-2.9,5-9.6,8.9-18.7,10.9c-14.3,3.2-32.7,3.1-51.9-0.4c-21.4-3.9-43.4-11.7-57.8-20.5c-8.8,3.6-17.5,7.6-26,11.5
				c-14.2,6.5-28.9,13.2-43.6,18.2c-5.8,2-12.7,4.3-20.1,6.3c-7.3,2.1-14.7,3.7-22,4.8c2.6,11.7,6.7,23.9,12.3,36.4
				c3.2,7.2,6.5,14.5,10.1,22.2c1.5,3.2,3,6.5,4.6,9.9c3,6.4,6,12.8,9,19.1l1.9,3.9c7.6,16,16.2,35,22.5,54.6
				c3.7,11.5,6.5,24.1,8.2,36.4c3,22.3,8.6,76.5-5.1,99C292.9,405.1,292.8,405.1,292.7,405.1z M258.1,43.1c-1.3,0-2.7,0.1-4,0.2
				c-16,1.9-24,14.9-26,25.4c-3.3,17.3-2.9,35.2,1.3,54c7.4-1.1,14.7-2.7,22-4.8s14.2-4.4,20.1-6.3c14.7-5,29.4-11.7,43.6-18.1
				c8.4-3.8,16.9-7.7,25.5-11.3c-0.4-0.2-0.7-0.4-1.1-0.6c-0.3-0.2-0.6-0.3-0.9-0.5c-5.5-3.2-10.9-6.6-16.2-9.9
				c-8.3-5.2-16.9-10.7-25.9-15.2l-1.5-0.8C284.1,49.8,270.7,43.1,258.1,43.1z M342.1,82.4c14.3,8.6,36,16.3,57,20.1
				c19.1,3.5,37.4,3.6,51.6,0.4c8.9-2,15.4-5.8,18.2-10.6c1.6-2.8,2-5.8,1.1-8.9c-1.1-3.7-4.8-7.1-10.8-9.8c-9.9-4.4-21-6.5-24.2-7
				c-19.4-3.2-40.6-1.2-66.7,6.4C359.5,75.6,350.7,78.9,342.1,82.4z"/>
		</g>
		<g>
			
				<radialGradient id="SVGID_5_" cx="247.1474" cy="412.0046" r="199.4388" gradientTransform="matrix(1 0 0 -1 0 630)" gradientUnits="userSpaceOnUse">
				<stop  offset="0" style="stop-color:#FFFFFF;stop-opacity:0.75"/>
				<stop  offset="0.8871" style="stop-color:#FFFFFF;stop-opacity:0.3065"/>
				<stop  offset="1" style="stop-color:#FFFFFF;stop-opacity:0.25"/>
			</radialGradient>
			<path class="st4" d="M292.6,404.7c-0.1,0-0.1,0-0.2,0c-0.2-0.1-0.3-0.3-0.2-0.5c9.5-20,4.6-69.2,0.8-96.7
				c-1.6-11.9-4.4-23.8-8.2-35.4c-6.2-18.9-14.4-36.6-22.3-53c-3.3-6.9-7.1-14.7-10.7-22.4c-4.5-9.8-9.7-20.8-14-31.5
				c-4.9-12-8.3-24-10.2-35.8c-39.3,5-73.3-9.1-101.9-24.2c-10.2-5.4-19.1-10.9-27.4-16.8C76.9,73,59.4,57.2,35.8,31.9
				c-0.1-0.2-0.1-0.4,0-0.5c0.2-0.1,0.4-0.1,0.5,0c23.5,25.2,41,41,62.4,56.4c8.2,5.9,17.1,11.4,27.3,16.7
				c28.5,15,62.4,29.1,101.4,24.1c-3-19.4-1.9-37.8,3.5-53.4c4.5-12.9,15.3-21.5,28.9-22.9c13-1.4,27,4.5,38.3,9.1l0.5,0.2
				c8.5,3.5,16.7,7.8,24.6,12c4.7,2.5,9.6,5,14.4,7.4c0.3,0.1,0.5,0.2,0.8,0.4c0.5,0.2,0.9,0.4,1.4,0.7c1.1,0.6,2.3,1.2,3.7,1.9
				c5.1-2,10.2-3.8,15.3-5.4c26.2-8.1,47.5-10.6,67-8c3.9,0.5,13.9,2.1,22,5.1c6.1,2.2,9.7,5.1,10.5,8.5c0.6,2.5,0.2,4.9-1.2,7
				c-2.8,4.2-9.4,7.4-18.6,8.9c-12.6,2.1-29.1,1.7-46.3-1.2c-20.2-3.4-38.1-9.2-48.6-14.1c-12.1,4.8-24,10.5-35.5,16.1
				c-14.6,7-29.7,14.3-45,19.5c-7.4,2.5-14,4.5-20.2,6.1c-4.9,1.2-9.7,2.2-14.5,2.8c1.9,11.7,5.3,23.7,10.1,35.6
				c4.3,10.6,9.4,21.7,14,31.4c3.6,7.7,7.3,15.5,10.7,22.3c8,16.4,16.2,34.2,22.4,53.1c3.8,11.7,6.6,23.6,8.2,35.5
				c3.8,27.6,8.7,77-0.9,97.2C292.9,404.7,292.8,404.7,292.6,404.7z M264,53c-1.3,0-2.6,0.1-3.9,0.2c-13.3,1.4-23.8,9.8-28.3,22.4
				c-5.4,15.4-6.5,33.7-3.5,53c4.7-0.6,9.5-1.5,14.4-2.8c6.1-1.5,12.7-3.5,20.1-6.1c15.3-5.2,30.4-12.5,44.9-19.5
				c11.4-5.5,23-11.1,34.9-15.8c-1.1-0.5-2.2-1.1-3.1-1.6c-0.4-0.2-0.9-0.4-1.4-0.7c-0.3-0.1-0.5-0.2-0.8-0.4
				c-4.9-2.4-9.7-4.9-14.4-7.4c-7.9-4.2-16.1-8.5-24.5-12l-0.5-0.2C288,58.1,275.7,53,264,53z M344.7,84.5
				c10.6,4.8,28.1,10.4,47.8,13.7c17.2,2.9,33.5,3.3,46.1,1.2c9-1.5,15.5-4.6,18.1-8.6c1.3-2,1.7-4.1,1.1-6.4c-0.8-3.1-4.2-5.9-10-8
				c-8.1-2.9-18-4.5-21.9-5c-19.4-2.6-40.6-0.1-66.6,7.9C354.4,80.9,349.5,82.6,344.7,84.5z"/>
		</g>
		<g>
			
				<radialGradient id="SVGID_6_" cx="240.2607" cy="419.5046" r="200.0569" gradientTransform="matrix(1 0 0 -1 0 630)" gradientUnits="userSpaceOnUse">
				<stop  offset="0" style="stop-color:#FFFFFF;stop-opacity:0.75"/>
				<stop  offset="0.8871" style="stop-color:#FFFFFF;stop-opacity:0.3065"/>
				<stop  offset="1" style="stop-color:#FFFFFF;stop-opacity:0.25"/>
			</radialGradient>
			<path class="st5" d="M292.6,404.3h-0.1c-0.2-0.1-0.3-0.3-0.2-0.5c6.9-20.6-0.5-74.7-3.3-95c-1.6-11.2-4.3-22.8-8.2-34.4
				c-6.1-18.2-14.3-35.5-22.2-51.5c-3.4-6.9-7.1-14.3-10.5-21.8c-3.9-8.5-9-19.6-13.2-30.9c-3.7-9.8-6.7-21.8-8.1-34.4
				c-41.5,5.9-76-15-107.9-37.1c-9.4-6.5-17.9-13.1-25.9-20c-20.6-18-36-35.2-58.8-61.4c-0.1-0.2-0.1-0.4,0-0.5
				c0.2-0.1,0.4-0.1,0.5,0C57.5,43,72.9,60.2,93.4,78.1c8,6.9,16.4,13.4,25.8,20c31.8,22,66.2,42.9,107.4,37
				c-1.9-18.1-0.2-37.4,8.3-53c6.3-11.6,17.4-18.6,31.1-19.9c11.6-1,23.5,2.3,34.8,5.9c8,2.5,15.9,5.7,23.5,8.8
				c4.1,1.6,8.3,3.3,12.5,4.9c0.2,0.1,0.5,0.2,0.7,0.3c0.4,0.2,0.9,0.3,1.3,0.5c1.9,0.9,5,2,9.1,3.2c0.7-0.2,1.4-0.5,2.1-0.7
				c25.4-8.3,47.3-11.4,66.9-9.5l0.7,0.1c4.3,0.4,12.3,1.2,19,3c6,1.6,9.2,3.9,9.7,6.8c0.3,1.8-0.1,3.4-1.2,4.8
				c-2.6,3.4-9.1,5.7-18.7,6.6c-10.9,1-25.3,0.3-40.7-1.9c-14.2-2.1-28.2-5.3-37.8-8.2c-16.2,5.6-31.9,13.5-47,21.2
				c-14.9,7.5-30.3,15.4-46.2,20.9c-7.1,2.5-13.7,4.4-20.3,5.8c-2.4,0.5-4.7,0.9-7,1.3c1.4,12.6,4.4,24.5,8.1,34.3
				c4.2,11.3,9.2,22.4,13.2,30.8c3.4,7.4,7.1,14.8,10.5,21.7c8,16,16.2,33.4,22.3,51.6c3.9,11.7,6.7,23.3,8.3,34.6
				c2.8,20.4,10.3,74.6,3.3,95.3C292.9,404.2,292.8,404.3,292.6,404.3z M270.4,62.8c-1.4,0-2.8,0.1-4.3,0.2
				c-13.5,1.2-24.4,8.1-30.5,19.5c-8.4,15.4-10.1,34.5-8.2,52.5c2.3-0.3,4.6-0.8,6.9-1.3c6.5-1.5,13.1-3.4,20.2-5.8
				c15.8-5.5,31.2-13.3,46.1-20.8s30.2-15.3,46.1-20.9c-3.4-1-6.2-2-8.1-2.9c-0.4-0.2-0.8-0.3-1.2-0.5c-0.2-0.1-0.5-0.2-0.7-0.3
				c-4.2-1.6-8.4-3.3-12.5-4.9c-7.6-3.1-15.5-6.2-23.4-8.7C290.8,65.8,280.4,62.8,270.4,62.8z M349.1,86.1c9,2.7,22.2,5.8,36.7,7.9
				c15.3,2.3,29.8,3,40.6,1.9c9.4-0.9,15.7-3.1,18.2-6.3c1-1.3,1.3-2.7,1.1-4.2c-0.4-2.6-3.5-4.7-9.2-6.2c-6.5-1.8-14.5-2.5-18.8-3
				l-0.7-0.1c-19.5-1.9-41.3,1.2-66.6,9.5C349.8,85.9,349.5,86,349.1,86.1z"/>
		</g>
		<g>
			
				<radialGradient id="SVGID_7_" cx="232.9225" cy="427.1" r="201.0356" gradientTransform="matrix(1 0 0 -1 0 630)" gradientUnits="userSpaceOnUse">
				<stop  offset="0" style="stop-color:#FFFFFF;stop-opacity:0.75"/>
				<stop  offset="0.8871" style="stop-color:#FFFFFF;stop-opacity:0.3065"/>
				<stop  offset="1" style="stop-color:#FFFFFF;stop-opacity:0.25"/>
			</radialGradient>
			<path class="st6" d="M292.6,403.9L292.6,403.9c-0.3,0-0.4-0.2-0.4-0.4c3.5-17.6-2.9-61.7-6.4-85.5c-0.4-3-0.8-5.6-1.1-7.8
				c-4.2-30.3-17.9-59-30.4-83.5c-7.8-15.2-16.6-33.1-22.8-51.5c-3.3-9.6-5.6-21.1-6.2-32.9c-46.3,8.7-82.1-22.6-113.8-50.2
				C84.4,68.5,69.1,49.2,49.7,24.7c-5.6-7-11.3-14.2-17.8-22.2C31.8,2.3,31.8,2.1,32,2c0.2-0.1,0.4-0.1,0.5,0.1
				C39,10,44.7,17.3,50.3,24.3C69.7,48.7,85,68,112,91.6c31.5,27.5,67.3,58.7,113.2,50c-0.8-17.7,2.1-36,11-49.5
				c8.1-12.2,20.1-18.9,35.7-20c18.2-1.3,36.3,3.4,53.8,7.9c3.8,1,7.8,2,11.7,2.9c3,0.7,10.1,2.1,19.2,3.6c17.7-4.7,34.7-6.8,51-6.2
				c0.5,0,1.2,0,2.1,0c7.2,0.1,23.9,0.3,24.3,6.1c0.1,1.3-0.5,2.5-1.6,3.4c-8.4,7.1-50.1,1.7-75.6-2.6c-5.2,1.4-10.4,3-15.7,4.8
				c-16.6,5.8-32.5,14.2-47.8,22.4c-21.1,11.3-43,22.9-67.2,27.7c0.6,11.8,2.9,23.2,6.2,32.8c6.3,18.4,15,36.1,22.8,51.4
				c12.5,24.6,26.2,53.4,30.4,83.8c0.3,2.2,0.7,4.9,1.1,7.8c3.4,23.8,9.8,68,6.4,85.7C293,403.8,292.8,403.9,292.6,403.9z
				 M278.3,72.6c-2.1,0-4.1,0.1-6.2,0.2c-15.4,1.1-27.2,7.7-35.1,19.7c-8.8,13.3-11.7,31.4-10.9,48.9c24-4.7,45.8-16.4,66.9-27.6
				c15.4-8.2,31.2-16.7,47.9-22.4c4.8-1.7,9.5-3.1,14.2-4.4c-9.2-1.5-15.9-2.9-17.7-3.3c-3.9-0.9-7.9-2-11.7-2.9
				C310.2,76.7,294.3,72.6,278.3,72.6z M358.6,86.8c25.8,4.2,65.6,9,73.4,2.4c0.9-0.8,1.4-1.7,1.3-2.8c-0.3-5.1-17.2-5.3-23.5-5.4
				c-0.9,0-1.6,0-2.1,0C392.1,80.5,375.6,82.5,358.6,86.8z"/>
		</g>
	</g>
</g>
<g id="Layer_2_1_">
	<g>
		<path class="st7" d="M40.1,191.5c-16.8,0-28.1-6.2-28.1-25.6v-43.8H0v-17.3h12v-27l20.8-3.2v30.2h17.5l2.6,17.3H32.8v40.2
			c0,6.9,3.2,10.6,11.3,10.6c2.5,0,4.8-0.2,6.7-0.7l2.6,17.8C50.2,190.8,46.3,191.5,40.1,191.5z"/>
		<path class="st7" d="M85.3,141.2v48.9H64.1v-85.3h18l2.6,17.1c5.6-9.9,14.1-18.2,27.4-18.9l3.4,21C102.3,125,91.3,132,85.3,141.2z
			"/>
		<path class="st7" d="M170.1,190.1l-1.8-11.1c-6.9,7.2-15.7,12.9-28.4,12.9c-14.5,0-24.2-8.8-24.2-23.7c0-20.7,16.9-29.7,51.4-33
			v-2.5c0-9.2-5.3-12.7-14.7-12.7c-9.9,0-19.2,2.8-28.4,6.9l-2.6-16.9c9.9-3.9,20.3-6.9,33.9-6.9c22.1,0,33,8.1,33,28.6v58.4H170.1z
			 M167.1,147.6c-24.5,3-30.4,10.2-30.4,18.4c0,6.2,3.9,9.9,10.4,9.9c7.2,0,14.1-3.4,19.9-9.2v-19.1H167.1z"/>
		<path class="st7" d="M286.9,190.3h-19.4L251.8,134l-15.4,56.3H217l-25.4-83.9l21.5-2.8l15,57.7l15.4-56.5h18.7l15.4,56.3
			l14.7-56.3h20.1L286.9,190.3z"/>
		<path class="st7" d="M364.9,190.1l-1.8-11.1c-6.9,7.2-15.7,12.9-28.4,12.9c-14.5,0-24.2-8.8-24.2-23.7c0-20.7,16.9-29.7,51.4-33
			v-2.5c0-9.2-5.3-12.7-14.7-12.7c-9.9,0-19.2,2.8-28.4,6.9l-2.6-16.9c9.9-3.9,20.3-6.9,33.9-6.9c22.1,0,33,8.1,33,28.6v58.4H364.9z
			 M361.9,147.6c-24.5,3-30.4,10.2-30.4,18.4c0,6.2,3.9,9.9,10.4,9.9c7.2,0,14.1-3.4,19.9-9.2v-19.1H361.9z"/>
		<path class="st7" d="M396.2,190.1V66l21.2-3.4v127.5H396.2z"/>
		<path class="st7" d="M431.8,190.1V66l21.2-3.4v127.5H431.8z"/>
		<path class="st7" d="M516.2,190.1l-1.8-11.1c-6.9,7.2-15.7,12.9-28.4,12.9c-14.5,0-24.2-8.8-24.2-23.7c0-20.7,16.9-29.7,51.4-33
			v-2.5c0-9.2-5.3-12.7-14.7-12.7c-9.9,0-19.2,2.8-28.4,6.9l-2.6-16.9c9.9-3.9,20.3-6.9,33.9-6.9c22.1,0,33,8.1,33,28.6v58.4H516.2z
			 M513.2,147.6c-24.5,3-30.4,10.2-30.4,18.4c0,6.2,3.9,9.9,10.4,9.9c7.2,0,14.1-3.4,19.9-9.2L513.2,147.6L513.2,147.6z"/>
		<path class="st7" d="M316.4,287.5c-14.4,0-25.2-5.2-25.2-14.6c0-5.6,4.7-11.2,13.7-15.4c-3.2-1.7-4.8-3.7-4.8-6c0-3,1.9-5,5.5-7.3
			c-6.1-3-10.3-8.9-10.3-16.7c0-11.8,9.7-19,20.3-19c5.4,0,10.3,1.7,14,4.8l13.9-4.6l1.1,6.2l-12.1,1.3c2.4,3,3.8,6.8,3.8,11.2
			c0,11.8-9.6,19-20.5,19c-1.9,0-3.7-0.1-5.4-0.6c-3.2,1.8-4.6,3.1-4.6,4.6c0,2.5,2.5,3.6,13.2,5.6l4.3,0.8c13,2.5,19.3,6.1,19.3,14
			C342.7,281.1,330.9,287.5,316.4,287.5z M310,259.5c-8.9,3.7-13.1,8-13.1,13.1c0,6.8,8.9,10.3,19.9,10.3c11.9,0,20.2-4.9,20.2-11.3
			c0-5.2-4.3-7.6-16-9.8l-4.3-0.8C314,260.5,312,260,310,259.5z M315.6,212.9c-8.9,0-14.5,6.1-14.5,14.5c0,8,5.6,14.5,14.8,14.5
			c9.2,0,14.9-6.2,14.9-14.5C330.7,219.4,324.6,212.9,315.6,212.9z"/>
		<path class="st7" d="M357.6,229v37.1H352v-56.4h3.7l1.8,11.8c4.3-6.4,10.9-12.8,20.3-13l1,5.3C369.4,214.4,361.4,221.5,357.6,229z
			"/>
		<path class="st7" d="M404.7,267.3c-14,0-24.8-10.8-24.8-29.4c0-18.7,11.2-29.4,24.8-29.4c14.2,0,25,10.7,25,29.4
			C429.7,256.5,418.5,267.3,404.7,267.3z M404.7,213.4c-10.8,0-19,8.5-19,24.5c0,15.6,8.3,24.5,19,24.5c10.8,0,19.1-8.4,19.1-24.5
			C423.8,222.3,415.5,213.4,404.7,213.4z"/>
		<path class="st7" d="M475.9,266.1l-1.4-8.5c-6.8,6-13.1,9.7-20.5,9.7c-11.6,0-17.2-6.6-17.2-17.9v-39.7h5.6v39.2
			c0,8.5,4.1,13.2,12.1,13.2c6.2,0,12.7-3.6,19.8-10.2v-42.2h5.6v56.4H475.9z"/>
		<path class="st7" d="M512.2,266.8c-5.6,0-10.7-1.1-15.1-2.9v22.7l-5.6,1.2v-78.1h4.1l1.4,8.2c4.6-5.2,9.8-9.4,18-9.4
			c12.5,0,23.2,8.9,23.2,27.8C538.2,256.9,525.9,266.8,512.2,266.8z M514.9,213.7c-6.8,0-12.1,4-17.8,10.3v34.4
			c4.4,2.2,9.4,3.5,15,3.5c11.3,0,20.2-8,20.2-25.3C532.3,221.7,525,213.7,514.9,213.7z"/>
	</g>
</g>
</svg>
